/* XPM */
static char * vocalofx_about_xpm[] = {
"32 32 662 2",
"  	c None",
". 	c #E7B769",
"+ 	c #EAC078",
"@ 	c #EDC681",
"# 	c #ECC780",
"$ 	c #EBC279",
"% 	c #E7B86B",
"& 	c #E0A550",
"* 	c #D88E32",
"= 	c #E5B262",
"- 	c #EECC89",
"; 	c #F7E5B1",
"> 	c #FDF6CC",
", 	c #FFFCD5",
"' 	c #FFFCD4",
") 	c #FFFBD1",
"! 	c #FFFBCE",
"~ 	c #FFFBCB",
"{ 	c #FFFBC6",
"] 	c #FAEEB2",
"^ 	c #EECE85",
"/ 	c #DD9E48",
"( 	c #ECC680",
"_ 	c #FAF0BF",
": 	c #FFFCD8",
"< 	c #FDF8D3",
"[ 	c #FBF2CB",
"} 	c #FAECC2",
"| 	c #F7E7B9",
"1 	c #F6E3B1",
"2 	c #F6E2AD",
"3 	c #EAC38A",
"4 	c #FAEFB6",
"5 	c #F4F3BF",
"6 	c #EBEBB4",
"7 	c #E1CC89",
"8 	c #CE8630",
"9 	c #DFA34D",
"0 	c #EAD297",
"a 	c #F3EEC4",
"b 	c #FEFAD2",
"c 	c #FBF0C8",
"d 	c #F8E9C2",
"e 	c #F8EAC5",
"f 	c #F8EBC6",
"g 	c #F8E8C0",
"h 	c #F6E2B6",
"i 	c #F2D9A7",
"j 	c #E3B074",
"k 	c #DFA365",
"l 	c #EAC27F",
"m 	c #E2BD7D",
"n 	c #D2C79B",
"o 	c #BBD5C2",
"p 	c #A7CDBD",
"q 	c #9E9E79",
"r 	c #8B6945",
"s 	c #DEA049",
"t 	c #F6E7AD",
"u 	c #B99286",
"v 	c #9E9492",
"w 	c #D8C7A2",
"x 	c #EBDBB2",
"y 	c #F7EBC8",
"z 	c #FBF3D6",
"A 	c #FCF4D7",
"B 	c #FAEFCE",
"C 	c #EBC48F",
"D 	c #E0A96D",
"E 	c #E6B77A",
"F 	c #EBC584",
"G 	c #E8BC76",
"H 	c #DFAF69",
"I 	c #D0A967",
"J 	c #B6BF96",
"K 	c #90C1B1",
"L 	c #7EB9A9",
"M 	c #689D8B",
"N 	c #C6832D",
"O 	c #E5D9A5",
"P 	c #DDE5CB",
"Q 	c #E2D3D3",
"R 	c #A1BAB1",
"S 	c #7E8582",
"T 	c #ACBFBA",
"U 	c #E4E2C8",
"V 	c #FEF9E2",
"W 	c #FFFBE5",
"X 	c #FCF3D7",
"Y 	c #F8EAC6",
"Z 	c #EAC38F",
"` 	c #EAC28B",
" .	c #EFCE94",
"..	c #ECC686",
"+.	c #E8BD79",
"@.	c #DCB97F",
"#.	c #C9BB93",
"$.	c #B5CFBF",
"%.	c #A6CEC2",
"&.	c #9AC8BB",
"*.	c #74B4A3",
"=.	c #55A08D",
"-.	c #B6919A",
";.	c #87827E",
">.	c #C8CAB6",
",.	c #B7D8CF",
"'.	c #AED2C8",
").	c #BBA1A6",
"!.	c #C4DBD5",
"~.	c #ABB8B5",
"{.	c #959A99",
"].	c #DBE5DA",
"^.	c #F9F3DA",
"/.	c #FBF0D2",
"(.	c #F1D7AB",
"_.	c #E8BE88",
":.	c #EFD19C",
"<.	c #EFCF95",
"[.	c #ECC685",
"}.	c #E8BD78",
"|.	c #E5B46B",
"1.	c #E1AA5E",
"2.	c #D29A4F",
"3.	c #ABAF8B",
"4.	c #99C7BB",
"5.	c #B5D6CD",
"6.	c #87BEB0",
"7.	c #479380",
"8.	c #B5A1A5",
"9.	c #BBBFAF",
"0.	c #98C6B9",
"a.	c #78A397",
"b.	c #87646B",
"c.	c #BADAD1",
"d.	c #DFE6E5",
"e.	c #CCD4D2",
"f.	c #E1EFEC",
"g.	c #E9E3C8",
"h.	c #FBF0D1",
"i.	c #F2DAB0",
"j.	c #F0D3A5",
"k.	c #E7BA82",
"l.	c #EBC68D",
"m.	c #EECD91",
"n.	c #EBC483",
"o.	c #E8BB76",
"p.	c #E5B269",
"q.	c #E2AA5E",
"r.	c #DFA253",
"s.	c #D59344",
"t.	c #9BA47E",
"u.	c #90C3B4",
"v.	c #8BBFB1",
"w.	c #93BDB3",
"x.	c #B79BA1",
"y.	c #B0D4CA",
"z.	c #97C6B9",
"A.	c #7BB7A7",
"B.	c #6CA697",
"C.	c #8C918E",
"D.	c #B6D7CE",
"E.	c #AFB9B7",
"F.	c #A8B9B5",
"G.	c #E7F2EF",
"H.	c #D5D7BF",
"I.	c #F2DCB1",
"J.	c #EFCF9F",
"K.	c #F6E0B2",
"L.	c #E4B177",
"M.	c #EBC68C",
"N.	c #EDCA8C",
"O.	c #EAC07D",
"P.	c #E0A763",
"Q.	c #D58A49",
"R.	c #D68C47",
"S.	c #DEA052",
"T.	c #DB9848",
"U.	c #CB883B",
"V.	c #79AA92",
"W.	c #8EC2B3",
"X.	c #8BC0B1",
"Y.	c #9CC8BC",
"Z.	c #ACBFB8",
"`.	c #95C5B7",
" +	c #70B2A0",
".+	c #51A18E",
"++	c #5CA895",
"@+	c #9ECABD",
"#+	c #AED2C7",
"$+	c #735E62",
"%+	c #95B4AA",
"&+	c #DEEDE8",
"*+	c #CEC8B0",
"=+	c #E3B780",
"-+	c #EECD99",
";+	c #EECD98",
">+	c #DFA467",
",+	c #E8BB7E",
"'+	c #DC9C5D",
")+	c #D07C3F",
"!+	c #CA6D32",
"~+	c #CD7638",
"{+	c #D68D46",
"]+	c #DD9E4F",
"^+	c #DB9646",
"/+	c #D68D3D",
"(+	c #9D8A53",
"_+	c #78B6A4",
":+	c #89BFB0",
"<+	c #9ABDB3",
"[+	c #448578",
"}+	c #9BC8BB",
"|+	c #7EB9A8",
"1+	c #61AB98",
"2+	c #4CA28C",
"3+	c #6FB2A0",
"4+	c #A4CDC1",
"5+	c #A0CABE",
"6+	c #95A5A2",
"7+	c #88BFB0",
"8+	c #C2DDD5",
"9+	c #F6F8F4",
"0+	c #E5CAAE",
"a+	c #E4BA81",
"b+	c #E2AC70",
"c+	c #D99456",
"d+	c #D5894B",
"e+	c #D99252",
"f+	c #DEA25E",
"g+	c #E4AF66",
"h+	c #D9954B",
"i+	c #DC9B4B",
"j+	c #D99343",
"k+	c #D58D3F",
"l+	c #BD8A4D",
"m+	c #5CA690",
"n+	c #70B2A1",
"o+	c #79B7A6",
"p+	c #96C1B5",
"q+	c #499886",
"r+	c #8EC1B3",
"s+	c #71B2A1",
"t+	c #5FAA97",
"u+	c #5CA894",
"v+	c #86BDAD",
"w+	c #A0CBBE",
"x+	c #AECEC4",
"y+	c #A8A097",
"z+	c #71A596",
"A+	c #A8B7B1",
"B+	c #F1F6F3",
"C+	c #FFFEFB",
"D+	c #D09058",
"E+	c #D68D4F",
"F+	c #DEA05F",
"G+	c #E8BA76",
"H+	c #E8BA73",
"I+	c #E0A55F",
"J+	c #D18040",
"K+	c #C25B24",
"L+	c #BB4916",
"M+	c #DA9445",
"N+	c #D8903F",
"O+	c #D58838",
"P+	c #C0A274",
"Q+	c #639E84",
"R+	c #7EBBAC",
"S+	c #72B4A2",
"T+	c #8FC4B5",
"U+	c #4A9F8B",
"V+	c #89BDAF",
"W+	c #69AF9C",
"X+	c #6DB09E",
"Y+	c #63AB98",
"Z+	c #99C7BA",
"`+	c #84B9AB",
" @	c #7E7D7E",
".@	c #606D6A",
"+@	c #858986",
"@@	c #D8D8D3",
"#@	c #DDDCDA",
"$@	c #BC8C65",
"%@	c #E0A765",
"&@	c #DD9D5A",
"*@	c #CD7639",
"=@	c #C35C25",
"-@	c #C6652A",
";@	c #D17F3B",
">@	c #DA9547",
",@	c #D78C3C",
"'@	c #D48535",
")@	c #BB8B50",
"!@	c #85BCAE",
"~@	c #6EAE9F",
"{@	c #93C4B7",
"]@	c #80BBAB",
"^@	c #519F8D",
"/@	c #70AE9F",
"(@	c #6AAF9C",
"_@	c #63AC99",
":@	c #8FC2B3",
"<@	c #93C4B6",
"[@	c #69B19E",
"}@	c #89958B",
"|@	c #A09A91",
"1@	c #E4DDD0",
"2@	c #DDD8CD",
"3@	c #BF9F77",
"4@	c #D59A59",
"5@	c #CB6E33",
"6@	c #C8692F",
"7@	c #C6632A",
"8@	c #CC7336",
"9@	c #D9944C",
"0@	c #DEA153",
"a@	c #DC9B4C",
"b@	c #DA9544",
"c@	c #D78F3E",
"d@	c #D58738",
"e@	c #D38132",
"f@	c #B78243",
"g@	c #95C5B8",
"h@	c #6AA398",
"i@	c #9FCBBF",
"j@	c #4E8576",
"k@	c #54A28F",
"l@	c #5B9D84",
"m@	c #7EAD96",
"n@	c #50A38E",
"o@	c #6DB19F",
"p@	c #87BDAE",
"q@	c #8EC1B2",
"r@	c #62AC99",
"s@	c #EBDEBE",
"t@	c #F7E7CD",
"u@	c #EFDBBC",
"v@	c #C67B4D",
"w@	c #C6672D",
"x@	c #C8682E",
"y@	c #C56028",
"z@	c #C6642B",
"A@	c #C25C25",
"B@	c #DA964D",
"C@	c #DEA051",
"D@	c #DC9A4B",
"E@	c #DA9545",
"F@	c #D68939",
"G@	c #D28233",
"H@	c #CE8035",
"I@	c #AE8043",
"J@	c #7CAFA5",
"K@	c #A1CCC0",
"L@	c #60AA97",
"M@	c #568779",
"N@	c #56A692",
"O@	c #499B87",
"P@	c #AA7936",
"Q@	c #61997C",
"R@	c #80BAAA",
"S@	c #88BEAF",
"T@	c #84B59E",
"U@	c #EED1A3",
"V@	c #D7A86A",
"W@	c #C87737",
"X@	c #C05620",
"Y@	c #C15721",
"Z@	c #CD7738",
"`@	c #DEA155",
" #	c #C46127",
".#	c #BD4F1A",
"+#	c #DB9748",
"@#	c #DA9444",
"##	c #D68A3A",
"$#	c #D48434",
"%#	c #CB7728",
"&#	c #C1A57D",
"*#	c #9B814C",
"=#	c #76B5A4",
"-#	c #94C2B6",
";#	c #9ECABE",
">#	c #66AE9C",
",#	c #5DAA96",
"'#	c #4B9F8B",
")#	c #8A8049",
"!#	c #648D6B",
"~#	c #72B3A2",
"{#	c #7AB7A6",
"]#	c #82BBAB",
"^#	c #7CB5A7",
"/#	c #C7B0A6",
"(#	c #B24818",
"_#	c #BA4916",
":#	c #BD4F1B",
"<#	c #D68C44",
"[#	c #BE521D",
"}#	c #BA4D18",
"|#	c #D09F6A",
"1#	c #CD9352",
"2#	c #AE3708",
"3#	c #CE7B33",
"4#	c #D78E3D",
"5#	c #D68938",
"6#	c #D27F2F",
"7#	c #C67021",
"8#	c #BBCDBD",
"9#	c #7B8C69",
"0#	c #6CB09E",
"a#	c #9FCBBE",
"b#	c #89C0B1",
"c#	c #67AF9C",
"d#	c #52A48F",
"e#	c #589678",
"f#	c #529179",
"g#	c #6EB09F",
"h#	c #74B4A2",
"i#	c #7CB8A7",
"j#	c #5DA995",
"k#	c #D6D9C2",
"l#	c #EBD0B8",
"m#	c #B87D55",
"n#	c #B04818",
"o#	c #D89646",
"p#	c #B54210",
"q#	c #B1684D",
"r#	c #CBD6D3",
"s#	c #C1CCC9",
"t#	c #D7AE97",
"u#	c #BA5A1E",
"v#	c #D48536",
"w#	c #D48233",
"x#	c #D27E2F",
"y#	c #CF7A2A",
"z#	c #C26B1E",
"A#	c #B2D1C5",
"B#	c #78B7A7",
"C#	c #8BC0B2",
"D#	c #8DC0B2",
"E#	c #A7D0C4",
"F#	c #75B5A4",
"G#	c #52A490",
"H#	c #4A9A87",
"I#	c #66AD9A",
"J#	c #6EB19F",
"K#	c #76B4A4",
"L#	c #8BB99E",
"M#	c #E4DDC0",
"N#	c #838887",
"O#	c #807D7C",
"P#	c #A39079",
"Q#	c #AC897B",
"R#	c #ABB2B0",
"S#	c #A1A5A5",
"T#	c #A3B5B1",
"U#	c #D1A481",
"V#	c #9E3308",
"W#	c #9D360A",
"X#	c #BA5F1F",
"Y#	c #CF7829",
"Z#	c #CD7425",
"`#	c #B67230",
" $	c #A7D0C5",
".$	c #A2CCC0",
"+$	c #8FC2B4",
"@$	c #96C5B8",
"#$	c #96C0B3",
"$$	c #71A798",
"%$	c #4A9887",
"&$	c #5FA996",
"*$	c #68AE9C",
"=$	c #70B1A0",
"-$	c #5FAA96",
";$	c #4CA28D",
">$	c #9D9874",
",$	c #766452",
"'$	c #676768",
")$	c #727273",
"!$	c #7F8181",
"~$	c #838484",
"{$	c #8F8A85",
"]$	c #A18B63",
"^$	c #CD7E30",
"/$	c #AE5118",
"($	c #943309",
"_$	c #91340A",
":$	c #C0671F",
"<$	c #C3742E",
"[$	c #A08B5F",
"}$	c #94C5B7",
"|$	c #BDDBD3",
"1$	c #7CA498",
"2$	c #648C81",
"3$	c #67AD9B",
"4$	c #519C8A",
"5$	c #62AB98",
"6$	c #61AB97",
"7$	c #5EA087",
"8$	c #9D5A22",
"9$	c #783E28",
"0$	c #6F5B48",
"a$	c #655D5C",
"b$	c #7E6A59",
"c$	c #B47132",
"d$	c #CE7A2A",
"e$	c #CF792A",
"f$	c #C76F24",
"g$	c #B15618",
"h$	c #9F4711",
"i$	c #903F0F",
"j$	c #B9A88B",
"k$	c #8BB4A1",
"l$	c #90C2B4",
"m$	c #AAD0C5",
"n$	c #D1E6E0",
"o$	c #92C4B6",
"p$	c #587A70",
"q$	c #76B3A3",
"r$	c #5DA392",
"s$	c #51A48F",
"t$	c #5AA894",
"u$	c #63AC98",
"v$	c #57A692",
"w$	c #67A594",
"x$	c #847C73",
"y$	c #8A806E",
"z$	c #7A280E",
"A$	c #C26A1F",
"B$	c #CE7627",
"C$	c #CE7526",
"D$	c #CC7324",
"E$	c #C97022",
"F$	c #C46B1F",
"G$	c #B4621B",
"H$	c #BEB69D",
"I$	c #B2D5CC",
"J$	c #9BC8BC",
"K$	c #C8E0D9",
"L$	c #D0E6E0",
"M$	c #85BDAD",
"N$	c #79B1A2",
"O$	c #5F8D80",
"P$	c #7DB9A8",
"Q$	c #71B1A0",
"R$	c #56A691",
"S$	c #53A48F",
"T$	c #5EA995",
"U$	c #5DA895",
"V$	c #50A38F",
"W$	c #61AA97",
"X$	c #6CAC9A",
"Y$	c #778D88",
"Z$	c #767A79",
"`$	c #A67034",
" %	c #C56B1E",
".%	c #C56C20",
"+%	c #C0681D",
"@%	c #B55F16",
"#%	c #AC7842",
"$%	c #BBC5B4",
"%%	c #CAE2DB",
"&%	c #94C5B8",
"*%	c #9DC9BD",
"=%	c #C0DDD5",
"-%	c #C8E0DA",
";%	c #CAE2DC",
">%	c #517C70",
",%	c #7EB4A6",
"'%	c #82BBAC",
")%	c #66AB99",
"!%	c #4E9E8B",
"~%	c #6AAF9D",
"{%	c #7DB1A3",
"]%	c #82A59C",
"^%	c #97906A",
"/%	c #A1885C",
"(%	c #A29875",
"_%	c #AABFAC",
":%	c #C5DFD8",
"<%	c #ABD1C6",
"[%	c #B9D8CF",
"}%	c #C0DDD4",
"|%	c #A9D1C6",
"1%	c #60A08F",
"2%	c #47625A",
"3%	c #8DC1B2",
"4%	c #529D8C",
"5%	c #4FA38E",
"6%	c #4EA38E",
"7%	c #56A592",
"8%	c #7DB8A8",
"9%	c #87BEAE",
"0%	c #91C3B4",
"a%	c #9AC8BA",
"b%	c #B7D7CE",
"c%	c #C0DCD4",
"d%	c #B0D4C9",
"e%	c #B1D4CA",
"f%	c #B8D8CF",
"g%	c #C8E1DA",
"h%	c #75B4A4",
"i%	c #294840",
"j%	c #607F76",
"k%	c #6BAA9B",
"l%	c #6AB09E",
"m%	c #49A08A",
"n%	c #48A08A",
"o%	c #74B3A2",
"p%	c #A9D0C4",
"q%	c #A0CCC1",
"r%	c #2E5B50",
"s%	c #648179",
"t%	c #98C7B9",
"u%	c #8ABDAF",
"v%	c #5EA996",
"w%	c #489C88",
"x%	c #67AE9B",
"y%	c #86BDAE",
"z%	c #A3CDC1",
"A%	c #9CC9BC",
"B%	c #A1CCBF",
"C%	c #AFD2C9",
"D%	c #345E54",
"E%	c #546963",
"F%	c #9AC5B9",
"G%	c #99C8BA",
"H%	c #60A796",
"I%	c #489886",
"J%	c #4C9C89",
"K%	c #5AA793",
"L%	c #65AC99",
"M%	c #71B3A1",
"N%	c #84BCAC",
"O%	c #A5C5BC",
"P%	c #344B46",
"Q%	c #86A69D",
"R%	c #A6CFC3",
"S%	c #79B2A4",
"T%	c #499484",
"U%	c #64A697",
"V%	c #6BB09E",
"W%	c #69AE9C",
"X%	c #79B6A5",
"Y%	c #81BAAA",
"Z%	c #88BEB0",
"`%	c #859F97",
" &	c #3D4A46",
".&	c #829E95",
"+&	c #9CC3B9",
"@&	c #74ADA0",
"#&	c #7AAFA4",
"$&	c #9BC9BC",
"%&	c #87BEAF",
"&&	c #98C2B6",
"*&	c #7C9990",
"=&	c #3A4542",
"-&	c #414C49",
";&	c #647671",
">&	c #6E8680",
",&	c #899C96",
"'&	c #8B9D97",
")&	c #7F918C",
"!&	c #697975",
"~&	c #454E4B",
"                        . + @ # $ % & *                         ",
"                  = - ; > , ' ) ! ~ { ] ^ /                     ",
"                ( _ , : < [ } | 1 2 3 4 5 6 7 8                 ",
"            9 0 a b c d e f g h i j k l m n o p q r             ",
"          s t u v w x y z A B g C D E F G H I J K L M           ",
"        N O P Q R S T U V W X Y Z `  ...+.@.#.$.%.&.*.=.        ",
"    -.;.>.,.'.).!.~.{.].^.V /.(._.:.<.[.}.|.1.2.3.4.5.6.7.      ",
"    8.9.5.0.a.b.c.d.e.f.g.h.i.j.k.l.m.n.o.p.q.r.s.t.u.%.v.w.    ",
"    x.y.z.A.B.C.D.E.F.G.H.I.J.K.L.M.N.O.P.Q.R.S.T.U.V.W.X.Y.    ",
"    Z.`. +.+++@+#+$+%+&+*+=+-+;+>+,+'+)+!+~+{+]+^+/+(+ +_+:+<+  ",
"  [+}+|+1+2+3+4+5+6+7+8+9+0+a+b+c+d+e+f+g+q.h+i+j+k+l+m+n+o+p+  ",
"  q+r+s+t+u+v+w+x+y+z+A+B+C+D+E+F+G+H+I+J+K+L+M+N+O+P+Q+R+S+T+  ",
"  U+V+W+X+Y+r+Z+`+ @.@+@@@#@$@)+%@&@*@=@-@;@>@j+,@'@)@!@~@{@]@  ",
"  ^@/@(@++_@:@<@[@}@|@1@2@3@4@5@6@7@8@9@0@a@b@c@d@e@f@g@h@i@s+  ",
"j@k@l@m@n@o@p@q@r@s@t@u@v@w@x@y@z@A@B@C@D@E@N+F@G@H@I@:+J@K@L@  ",
"M@N@O@P@Q@S+R@S@T@U@V@W@X@Y@X@Z@`@ #.#+#@#N+##$#%#&#*#=#-#;#>#  ",
"  ,#'#)#!#~#{#]#^#/#(#_#:#<#[#}#|#1#2#3#4#5#$#6#7#8#9#0#a#<@b#  ",
"  c#d#e#f#g#h#i#j#k#l#m#n#o#p#q#r#s#t#u#v#w#x#y#z#A#B#C#`.D#E#  ",
"  F#j#G#H#I#J#K#j#L#M#N#O#P#Q#R#S#T#U#V#W#X#Y#Z#`# $Z+.$+$@$#$  ",
"  $$I#u+%$&$*$=$-$;$>$,$'$)$!$~${$]$^$/$($_$:$<$[$}+}$|$<@u.1$  ",
"  2$X+3$4$N@5$W+6$;$7$8$9$0$a$b$c$d$e$f$g$h$i$j$k$l$m$n$o$S@p$  ",
"    q$*.r$s$t$u$6$;$v$w$x$y$z$A$B$C$D$E$F$G$H$I$R@J$K$L$M$N$    ",
"    O$P$Q$R$S$T$U$V$v$W$X$Y$Z$`$ %.%+%@%#%$%%%&%*%=%-%;%~#>%    ",
"      ,%'%)%!%v$N@G#v$W$~%*.{%]%^%/%(%_%,.=%:%<%[%}%-%|%1%      ",
"      2%3%]#4%G#5%6%7%L@~%h#8%9%0%a%4+#+b%c%d%e%f%c%g%h%i%      ",
"        j%}$k%l%m%n%s$L@~%o%8%p@0%a%4+#+5.m$p%e%[%c%q%r%        ",
"          s%t%u%v%w%w%7%x%o%8%y%0%a%z%z%A%B%p%e%f%C%D%          ",
"            E%F%G%H%I%J%K%L%M%i#N%:+v.0%Z+B%p%e%O%P%            ",
"                Q%R%S%T%U%V%W%s+X%Y%Z%0%Z+B%m$`%                ",
"                   &.&+&@&#&$&%&8%R@S@<@&&*&=&                  ",
"                        -&;&>&,&'&)&!&~&                        ",
"                                                                "};
